{
  "productList": [
    {
      "productName": "Apple",
      "category": "Fruits",
      "freshness": "Brand New",
      "price": 450,
      "date": "2022-10-02T22:00:00.000Z",
      "comment": "Hello :)",
      "id": 1
    },
    {
      "productName": "Lemon",
      "category": "Fruits",
      "freshness": "Second Hand",
      "price": 300,
      "date": "2022-09-30T22:00:00.000Z",
      "comment": "Seconde Hand Fruits",
      "id": 2
    },
    {
      "productName": "Union",
      "category": "Vegetables",
      "freshness": "Brand New",
      "price": 150,
      "date": "2022-10-03T22:00:00.000Z",
      "comment": "My Prefered Vegetable",
      "id": 3
    },
    {
      "productName": "pomme",
      "category": "Fruits",
      "freshness": "Brand New",
      "price": 10,
      "date": "2022-10-05T22:00:00.000Z",
      "comment": "My Pomme",
      "id": 4
    },
    {
      "productName": "Laptop",
      "category": "Electronics",
      "freshness": "Refurbished",
      "price": 2333,
      "date": "2022-09-30T22:00:00.000Z",
      "comment": "My Laptop",
      "id": 5
    },
    {
      "productName": "TabPad",
      "category": "Electronics",
      "freshness": "Brand New",
      "price": 2000,
      "date": "2022-10-12T22:00:00.000Z",
      "comment": "My Ipad",
      "id": 6
    },
    {
      "productName": "Banana",
      "category": "Fruits",
      "freshness": "Brand New",
      "price": 100,
      "date": "2022-10-27T22:00:00.000Z",
      "comment": ":)",
      "id": 7
    }
  ],
  "comments": [
    {
      "id": 1,
      "body": "some comment",
      "postId": 1
    }
  ],
  "profile": {
    "name": "typicode"
  }
}